G04 #@! TF.FileFunction,Soldermask,Bot*
%FSLAX46Y46*%
G04 Gerber Fmt 4.6, Leading zero omitted, Abs format (unit mm)*
G04 Created by KiCad (PCBNEW 4.0.2+dfsg1-stable) date Sat 23 Jul 2016 05:57:03 PM COT*
%MOMM*%
G01*
G04 APERTURE LIST*
%ADD10C,0.100000*%
%ADD11R,1.727200X1.727200*%
%ADD12O,1.727200X1.727200*%
%ADD13C,1.550000*%
%ADD14R,1.600000X2.300000*%
%ADD15O,1.600000X2.300000*%
G04 APERTURE END LIST*
D10*
D11*
X172085000Y-91440000D03*
D12*
X172085000Y-93980000D03*
X169545000Y-91440000D03*
X169545000Y-93980000D03*
X167005000Y-91440000D03*
X167005000Y-93980000D03*
X164465000Y-91440000D03*
X164465000Y-93980000D03*
X161925000Y-91440000D03*
X161925000Y-93980000D03*
X159385000Y-91440000D03*
X159385000Y-93980000D03*
X156845000Y-91440000D03*
X156845000Y-93980000D03*
X154305000Y-91440000D03*
X154305000Y-93980000D03*
X151765000Y-91440000D03*
X151765000Y-93980000D03*
X149225000Y-91440000D03*
X149225000Y-93980000D03*
D13*
X146850540Y-78525100D03*
X146850540Y-83525100D03*
X144150540Y-77525100D03*
X144150540Y-84525100D03*
D14*
X175260000Y-70612000D03*
D15*
X172720000Y-70612000D03*
X170180000Y-70612000D03*
X167640000Y-70612000D03*
X167640000Y-78232000D03*
X170180000Y-78232000D03*
X172720000Y-78232000D03*
X175260000Y-78232000D03*
M02*
