G04 #@! TF.FileFunction,Profile,NP*
%FSLAX46Y46*%
G04 Gerber Fmt 4.6, Leading zero omitted, Abs format (unit mm)*
G04 Created by KiCad (PCBNEW 4.0.2+dfsg1-stable) date Sat 23 Jul 2016 05:57:03 PM COT*
%MOMM*%
G01*
G04 APERTURE LIST*
%ADD10C,0.100000*%
G04 APERTURE END LIST*
D10*
X142875000Y-97790000D02*
X142875000Y-68580000D01*
X177800000Y-97790000D02*
X142875000Y-97790000D01*
X177800000Y-68580000D02*
X177800000Y-97790000D01*
X142875000Y-68580000D02*
X177800000Y-68580000D01*
M02*
